{
  "baseBranches": ["master"],
  "$schema": "https://docs.renovatebot.com/renovate-schema.json",
  "extends": ["config:base", "docker:enableMajor", ":dependencyDashboard"], 
  "enabledManagers": ["dockerfile", "gitlabci"],
  "requiredStatusChecks": null,
  "packageRules": [{ "updateTypes": ["minor", "patch", "pin", "digest"], "automerge": true }]
}
